spatial pattern correlation — spc • cisp
…
cor_mat
A matrix with power of spatial pattern correlation

    Examples

sim1 = sf::st_as_sf(gdverse::sim,coords = c('lo','la'))
sim1
#> Simple feature collection with 80 features and 4 fields
#> Geometry type: POINT
#> Dimension:     XY
#> Bounding box:  xmin: 1 ymin: 1 xmax: 10 ymax: 8
#> CRS:           NA
#> # A tibble: 80 × 5
#>        y    xa    xb    xc geometry
#>    <dbl> <dbl> <dbl> <dbl>  <POINT>
#>  1  0.23  1.96  4.17  4.82    (1 1)
#>  2  0.34 10.7   3.83  7.41    (2 1)
#>  3  0.32  3.08  4.23  5.25    (3 1)
#>  4  0.25  2.67  3.02  3.91    (4 1)
#>  5  0.49  9.05  3.65  6.67    (5 1)
#>  6  0.7   4.93  4.16  5.80    (6 1)
#>  7  0.8   9.99  3.86  7.19    (7 1)
#>  8  0.84  2.60  2.56  3.43    (8 1)
#>  9  0.78  8.23  2.99  5.74    (9 1)
#> 10  0.65 14.8   2.03  6.97   (10 1)
#> # ℹ 70 more rows
…
